<svg width="37px" height="60px" viewBox="0 0 37 60" version="1.1" xmlns="http://www.w3.org/2000/svg" xmlns:xlink="http://www.w3.org/1999/xlink" xmlns:sketch="http://www.bohemiancoding.com/sketch/ns">
    <g id="Page-1" stroke="none" stroke-width="1" fill="none" fill-rule="evenodd" sketch:type="MSPage">
        <g id="$" sketch:type="MSLayerGroup" transform="translate(0.000000, -10.000000)" font-size="67.5712719" font-family="Helvetica Neue" fill="#0F56C9" font-weight="206">
            <text sketch:type="MSTextLayer">
                <tspan x="0" y="63" fill="#000000">$</tspan>
            </text>
        </g>
    </g>
</svg>